RISCV_top.vcd
$version Generated by VerilatedVcd $end
$date Thu Dec  8 11:09:17 2022 $end
$timescale 1ps $end

 $scope module TOP $end
  $var wire 32 ^ a0 [31:0] $end
  $var wire  1 \ clk $end
  $var wire  1 ] rst $end
  $scope module RISCV_top $end
   $var wire 32 b ADDRESS_WIDTH [31:0] $end
   $var wire  3 R ALUCtrl [2:0] $end
   $var wire  1 F ALUSrc $end
   $var wire 32 b DATA_WIDTH [31:0] $end
   $var wire  1 O EQ $end
   $var wire 32 L ImmOp [31:0] $end
   $var wire  2 N ImmSrc [1:0] $end
   $var wire 32 # PC [31:0] $end
   $var wire  1 G PCsrc $end
   $var wire  1 H RegWrite $end
   $var wire 32 ^ a0 [31:0] $end
   $var wire 32 # addr [31:0] $end
   $var wire  1 \ clk $end
   $var wire  3 Q funct3 [2:0] $end
   $var wire  1 S funct7_5 $end
   $var wire 32 T instr [31:0] $end
   $var wire 25 M instr_imm [31:7] $end
   $var wire  7 P op [6:0] $end
   $var wire  5 K rd [4:0] $end
   $var wire  5 I rs1 [4:0] $end
   $var wire  5 J rs2 [4:0] $end
   $var wire  1 ] rst $end
   $var wire  1 O zero $end
   $scope module CU $end
    $var wire  3 R ALUControl [2:0] $end
    $var wire  2 V ALUOp [1:0] $end
    $var wire  1 F ALUSrc $end
    $var wire  1 U Branch $end
    $var wire  2 N ImmSrc [1:0] $end
    $var wire  1 G PCSrc $end
    $var wire  1 H RegWrite $end
    $var wire  3 Q funct3 [2:0] $end
    $var wire  1 S funct7_5 $end
    $var wire  7 P op [6:0] $end
    $var wire  1 W op5 $end
    $var wire  1 O zero $end
    $scope module ALU_Deco $end
     $var wire  3 R ALUControl [2:0] $end
     $var wire  2 V ALUOp [1:0] $end
     $var wire  3 Q funct3 [2:0] $end
     $var wire  1 S funct7_5 $end
     $var wire  1 W op5 $end
    $upscope $end
    $scope module Main_Deco $end
     $var wire  2 V ALUOp [1:0] $end
     $var wire  1 F ALUSrc $end
     $var wire  1 U Branch $end
     $var wire  2 N ImmSrc [1:0] $end
     $var wire  1 H RegWrite $end
     $var wire  7 P op [6:0] $end
    $upscope $end
   $upscope $end
   $scope module InstrROM $end
    $var wire 32 c ADDRESS_WIDTH [31:0] $end
    $var wire 32 b DATA_WIDTH [31:0] $end
    $var wire 32 # F_addr [31:0] $end
    $var wire 28 X addr [27:0] $end
    $var wire 32 T instr [31:0] $end
    $var wire  4 $ unused [31:28] $end
   $upscope $end
   $scope module PC_top $end
    $var wire 32 L ImmOp [31:0] $end
    $var wire 32 # PC [31:0] $end
    $var wire  1 G PCsrc $end
    $var wire 32 b WIDTH [31:0] $end
    $var wire 32 _ branchPC [31:0] $end
    $var wire  1 \ clk $end
    $var wire 32 ` nextPC [31:0] $end
    $var wire  1 ] rst $end
    $scope module PC_adder $end
     $var wire 32 b INPUT_WIDTH [31:0] $end
     $var wire 32 # a [31:0] $end
     $var wire 32 L b [31:0] $end
     $var wire 32 _ sum [31:0] $end
     $var wire 32 _ sum_internal [31:0] $end
    $upscope $end
    $scope module PC_mux $end
     $var wire 32 b WIDTH [31:0] $end
     $var wire 32 ` data_out [31:0] $end
     $var wire 32 _ inputA [31:0] $end
     $var wire 32 % inputB [31:0] $end
     $var wire  1 G sel $end
    $upscope $end
    $scope module PC_reg $end
     $var wire 32 b WIDTH_IN [31:0] $end
     $var wire 32 b WIDTH_OUT [31:0] $end
     $var wire  1 \ clk $end
     $var wire 32 ` data_in [31:0] $end
     $var wire 32 # data_out [31:0] $end
     $var wire  1 ] rst $end
    $upscope $end
   $upscope $end
   $scope module SignEX $end
    $var wire 32 L ImmOp [31:0] $end
    $var wire  2 N ImmSrc [1:0] $end
    $var wire 25 M instr_imm [31:7] $end
   $upscope $end
   $scope module reg_alu_top $end
    $var wire 32 d ADDRESS [31:0] $end
    $var wire  3 R ALUctrl [2:0] $end
    $var wire 32 Y ALUop1 [31:0] $end
    $var wire 32 Z ALUop2 [31:0] $end
    $var wire 32 [ ALUout [31:0] $end
    $var wire  1 F ALUsrc $end
    $var wire  1 O EQ $end
    $var wire 32 L ImmOp [31:0] $end
    $var wire  1 H RegWrite $end
    $var wire 32 b WIDTH [31:0] $end
    $var wire 32 ^ a0 [31:0] $end
    $var wire  1 \ clk $end
    $var wire  5 K rd [4:0] $end
    $var wire 32 a regOp2 [31:0] $end
    $var wire  5 I rs1 [4:0] $end
    $var wire  5 J rs2 [4:0] $end
    $scope module alu1 $end
     $var wire  3 R ALUctrl [2:0] $end
     $var wire 32 Y ALUop1 [31:0] $end
     $var wire 32 Z ALUop2 [31:0] $end
     $var wire 32 [ ALUout [31:0] $end
     $var wire  1 O EQ $end
     $var wire 32 b WIDTH [31:0] $end
    $upscope $end
    $scope module reg1 $end
     $var wire  5 I AD1 [4:0] $end
     $var wire  5 J AD2 [4:0] $end
     $var wire  5 K AD3 [4:0] $end
     $var wire 32 d ADDRESS_WIDTH [31:0] $end
     $var wire 32 b DATA_WIDTH [31:0] $end
     $var wire 32 Y RD1 [31:0] $end
     $var wire 32 a RD2 [31:0] $end
     $var wire 32 [ WD3 [31:0] $end
     $var wire  1 H WE3 $end
     $var wire 32 ^ a0 [31:0] $end
     $var wire  1 \ clk $end
     $var wire 32 & registers[0] [31:0] $end
     $var wire 32 0 registers[10] [31:0] $end
     $var wire 32 1 registers[11] [31:0] $end
     $var wire 32 2 registers[12] [31:0] $end
     $var wire 32 3 registers[13] [31:0] $end
     $var wire 32 4 registers[14] [31:0] $end
     $var wire 32 5 registers[15] [31:0] $end
     $var wire 32 6 registers[16] [31:0] $end
     $var wire 32 7 registers[17] [31:0] $end
     $var wire 32 8 registers[18] [31:0] $end
     $var wire 32 9 registers[19] [31:0] $end
     $var wire 32 ' registers[1] [31:0] $end
     $var wire 32 : registers[20] [31:0] $end
     $var wire 32 ; registers[21] [31:0] $end
     $var wire 32 < registers[22] [31:0] $end
     $var wire 32 = registers[23] [31:0] $end
     $var wire 32 > registers[24] [31:0] $end
     $var wire 32 ? registers[25] [31:0] $end
     $var wire 32 @ registers[26] [31:0] $end
     $var wire 32 A registers[27] [31:0] $end
     $var wire 32 B registers[28] [31:0] $end
     $var wire 32 C registers[29] [31:0] $end
     $var wire 32 ( registers[2] [31:0] $end
     $var wire 32 D registers[30] [31:0] $end
     $var wire 32 E registers[31] [31:0] $end
     $var wire 32 ) registers[3] [31:0] $end
     $var wire 32 * registers[4] [31:0] $end
     $var wire 32 + registers[5] [31:0] $end
     $var wire 32 , registers[6] [31:0] $end
     $var wire 32 - registers[7] [31:0] $end
     $var wire 32 . registers[8] [31:0] $end
     $var wire 32 / registers[9] [31:0] $end
    $upscope $end
   $upscope $end
  $upscope $end
 $upscope $end
$enddefinitions $end


#0
b00000000000000000000000000000000 #
b0000 $
b00000000000000000000000000000100 %
b00000000000000000000000000000000 &
b00000000000000000000000000000000 '
b00000000000000000000000000000000 (
b00000000000000000000000000000000 )
b00000000000000000000000000000000 *
b00000000000000000000000000000000 +
b00000000000000000000000000000000 ,
b00000000000000000000000000000000 -
b00000000000000000000000000000000 .
b00000000000000000000000000000000 /
b00000000000000000000000000000000 0
b00000000000000000000000000000000 1
b00000000000000000000000000000000 2
b00000000000000000000000000000000 3
b00000000000000000000000000000000 4
b00000000000000000000000000000000 5
b00000000000000000000000000000000 6
b00000000000000000000000000000000 7
b00000000000000000000000000000000 8
b00000000000000000000000000000000 9
b00000000000000000000000000000000 :
b00000000000000000000000000000000 ;
b00000000000000000000000000000000 <
b00000000000000000000000000000000 =
b00000000000000000000000000000000 >
b00000000000000000000000000000000 ?
b00000000000000000000000000000000 @
b00000000000000000000000000000000 A
b00000000000000000000000000000000 B
b00000000000000000000000000000000 C
b00000000000000000000000000000000 D
b00000000000000000000000000000000 E
0F
0G
0H
b00000 I
b00000 J
b00000 K
b00000000000000000000000000000000 L
b0000000000000000000000000 M
b00 N
1O
b0000000 P
b000 Q
b000 R
0S
b00000000000000000000000000000000 T
0U
b00 V
0W
b0000000000000000000000000000 X
b00000000000000000000000000000000 Y
b00000000000000000000000000000000 Z
b00000000000000000000000000000000 [
1\
1]
b00000000000000000000000000000000 ^
b00000000000000000000000000000000 _
b00000000000000000000000000000100 `
b00000000000000000000000000000000 a
b00000000000000000000000000100000 b
b00000000000000000000000000011100 c
b00000000000000000000000000000101 d
#1
1F
1H
b11111 J
b00110 K
b00000000000000000000000011111111 L
b0000111111110000000000110 M
0O
b0010011 P
b00001111111100000000001100010011 T
b10 V
b00000000000000000000000011111111 Z
b00000000000000000000000011111111 [
0\
b00000000000000000000000011111111 _
#2
b00000000000000000000000011111111 ,
1\
0]
#3
0\
#4
b00000000000000000000000000000100 #
b00000000000000000000000000001000 %
b00000 J
b01010 K
b00000000000000000000000000000000 L
b0000000000000000000001010 M
1O
b00000000000000000000010100010011 T
b0000000000000000000000000100 X
b00000000000000000000000000000000 Z
b00000000000000000000000000000000 [
1\
b00000000000000000000000000000100 _
b00000000000000000000000000001000 `
#5
0\
#6
b00000000000000000000000000001000 #
b00000000000000000000000000001100 %
b01011 K
b0000000000000000000001011 M
b00000000000000000000010110010011 T
b0000000000000000000000001000 X
1\
b00000000000000000000000000001000 _
b00000000000000000000000000001100 `
#7
0\
#8
b00000000000000000000000000001100 #
b00000000000000000000000000010000 %
b01011 I
b01010 K
b0000000000000101100001010 M
b00000000000001011000010100010011 T
b0000000000000000000000001100 X
1\
b00000000000000000000000000001100 _
b00000000000000000000000000010000 `
#9
0\
#10
b00000000000000000000000000010000 #
b00000000000000000000000000010100 %
b00001 J
b01011 K
b00000000000000000000000000000001 L
b0000000000010101100001011 M
0O
b00000000000101011000010110010011 T
b0000000000000000000000010000 X
b00000000000000000000000000000001 Z
b00000000000000000000000000000001 [
1\
b00000000000000000000000000010001 _
b00000000000000000000000000010100 `
#11
0\
#12
b00000000000000000000000000010100 #
b00000000000000000000000000011000 %
b00000000000000000000000000000001 1
0F
0H
b00110 J
b11001 K
b11111111111111111111111111111000 L
b1111111001100101100111001 M
b10 N
b1100011 P
b001 Q
b001 R
1S
b11111110011001011001110011100011 T
1U
b01 V
1W
b0000000000000000000000010100 X
b00000000000000000000000000000001 Y
b00000000000000000000000011111111 Z
b11111111111111111111111100000010 [
1\
b00000000000000000000000000001100 _
b00000000000000000000000000011000 `
b00000000000000000000000011111111 a
#13
0\
#14
b00000000000000000000000000011000 #
b00000000000000000000000000011100 %
b00110 I
b00000 J
b10001 K
b11111111111111111111111111110000 L
b1111111000000011000110001 M
b11111110000000110001100011100011 T
b0000000000000000000000011000 X
b00000000000000000000000011111111 Y
b00000000000000000000000000000000 Z
b00000000000000000000000011111111 [
1\
b00000000000000000000000000001000 _
b00000000000000000000000000011100 `
b00000000000000000000000000000000 a
#15
0\
#16
b00000000000000000000000000011100 #
b00000000000000000000000000100000 %
b00000 I
b00000 K
b00000000000000000000000000000000 L
b0000000000000000000000000 M
b00 N
1O
b0000000 P
b000 Q
b000 R
0S
b00000000000000000000000000000000 T
0U
b00 V
0W
b0000000000000000000000011100 X
b00000000000000000000000000000000 Y
b00000000000000000000000000000000 [
1\
b00000000000000000000000000011100 _
b00000000000000000000000000100000 `
#17
0\
#18
b00000000000000000000000000100000 #
b00000000000000000000000000100100 %
b0000000000000000000000100000 X
1\
b00000000000000000000000000100000 _
b00000000000000000000000000100100 `
#19
0\
#20
b00000000000000000000000000100100 #
b00000000000000000000000000101000 %
b0000000000000000000000100100 X
1\
b00000000000000000000000000100100 _
b00000000000000000000000000101000 `
#21
0\
#22
b00000000000000000000000000101000 #
b00000000000000000000000000101100 %
b0000000000000000000000101000 X
1\
b00000000000000000000000000101000 _
b00000000000000000000000000101100 `
#23
0\
#24
b00000000000000000000000000101100 #
b00000000000000000000000000110000 %
b0000000000000000000000101100 X
1\
b00000000000000000000000000101100 _
b00000000000000000000000000110000 `
#25
0\
#26
b00000000000000000000000000110000 #
b00000000000000000000000000110100 %
b0000000000000000000000110000 X
1\
1]
b00000000000000000000000000110000 _
b00000000000000000000000000110100 `
#27
b00000000000000000000000000000000 #
b00000000000000000000000000000100 %
1F
1H
b11111 J
b00110 K
b00000000000000000000000011111111 L
b0000111111110000000000110 M
0O
b0010011 P
b00001111111100000000001100010011 T
b10 V
b0000000000000000000000000000 X
b00000000000000000000000011111111 Z
b00000000000000000000000011111111 [
0\
b00000000000000000000000011111111 _
b00000000000000000000000000000100 `
#28
1\
0]
#29
0\
#30
b00000000000000000000000000000100 #
b00000000000000000000000000001000 %
b00000 J
b01010 K
b00000000000000000000000000000000 L
b0000000000000000000001010 M
1O
b00000000000000000000010100010011 T
b0000000000000000000000000100 X
b00000000000000000000000000000000 Z
b00000000000000000000000000000000 [
1\
b00000000000000000000000000000100 _
b00000000000000000000000000001000 `
#31
0\
#32
b00000000000000000000000000001000 #
b00000000000000000000000000001100 %
b01011 K
b0000000000000000000001011 M
b00000000000000000000010110010011 T
b0000000000000000000000001000 X
1\
b00000000000000000000000000001000 _
b00000000000000000000000000001100 `
#33
0\
#34
b00000000000000000000000000001100 #
b00000000000000000000000000010000 %
b00000000000000000000000000000000 1
b01011 I
b01010 K
b0000000000000101100001010 M
b00000000000001011000010100010011 T
b0000000000000000000000001100 X
1\
b00000000000000000000000000001100 _
b00000000000000000000000000010000 `
#35
0\
#36
b00000000000000000000000000010000 #
b00000000000000000000000000010100 %
b00001 J
b01011 K
b00000000000000000000000000000001 L
b0000000000010101100001011 M
0O
b00000000000101011000010110010011 T
b0000000000000000000000010000 X
b00000000000000000000000000000001 Z
b00000000000000000000000000000001 [
1\
b00000000000000000000000000010001 _
b00000000000000000000000000010100 `
#37
0\
#38
b00000000000000000000000000010100 #
b00000000000000000000000000011000 %
b00000000000000000000000000000001 1
0F
0H
b00110 J
b11001 K
b11111111111111111111111111111000 L
b1111111001100101100111001 M
b10 N
b1100011 P
b001 Q
b001 R
1S
b11111110011001011001110011100011 T
1U
b01 V
1W
b0000000000000000000000010100 X
b00000000000000000000000000000001 Y
b00000000000000000000000011111111 Z
b11111111111111111111111100000010 [
1\
b00000000000000000000000000001100 _
b00000000000000000000000000011000 `
b00000000000000000000000011111111 a
#39
0\
#40
b00000000000000000000000000011000 #
b00000000000000000000000000011100 %
b00110 I
b00000 J
b10001 K
b11111111111111111111111111110000 L
b1111111000000011000110001 M
b11111110000000110001100011100011 T
b0000000000000000000000011000 X
b00000000000000000000000011111111 Y
b00000000000000000000000000000000 Z
b00000000000000000000000011111111 [
1\
b00000000000000000000000000001000 _
b00000000000000000000000000011100 `
b00000000000000000000000000000000 a
#41
0\
#42
b00000000000000000000000000011100 #
b00000000000000000000000000100000 %
b00000 I
b00000 K
b00000000000000000000000000000000 L
b0000000000000000000000000 M
b00 N
1O
b0000000 P
b000 Q
b000 R
0S
b00000000000000000000000000000000 T
0U
b00 V
0W
b0000000000000000000000011100 X
b00000000000000000000000000000000 Y
b00000000000000000000000000000000 [
1\
b00000000000000000000000000011100 _
b00000000000000000000000000100000 `
#43
0\
#44
b00000000000000000000000000100000 #
b00000000000000000000000000100100 %
b0000000000000000000000100000 X
1\
b00000000000000000000000000100000 _
b00000000000000000000000000100100 `
#45
0\
#46
b00000000000000000000000000100100 #
b00000000000000000000000000101000 %
b0000000000000000000000100100 X
1\
b00000000000000000000000000100100 _
b00000000000000000000000000101000 `
#47
0\
#48
b00000000000000000000000000101000 #
b00000000000000000000000000101100 %
b0000000000000000000000101000 X
1\
b00000000000000000000000000101000 _
b00000000000000000000000000101100 `
#49
0\
#50
b00000000000000000000000000101100 #
b00000000000000000000000000110000 %
b0000000000000000000000101100 X
1\
b00000000000000000000000000101100 _
b00000000000000000000000000110000 `
#51
0\
#52
b00000000000000000000000000110000 #
b00000000000000000000000000110100 %
b0000000000000000000000110000 X
1\
b00000000000000000000000000110000 _
b00000000000000000000000000110100 `
#53
0\
#54
b00000000000000000000000000110100 #
b00000000000000000000000000111000 %
b0000000000000000000000110100 X
1\
b00000000000000000000000000110100 _
b00000000000000000000000000111000 `
#55
0\
#56
b00000000000000000000000000111000 #
b00000000000000000000000000111100 %
b0000000000000000000000111000 X
1\
b00000000000000000000000000111000 _
b00000000000000000000000000111100 `
#57
0\
#58
b00000000000000000000000000111100 #
b00000000000000000000000001000000 %
b0000000000000000000000111100 X
1\
b00000000000000000000000000111100 _
b00000000000000000000000001000000 `
#59
0\
#60
b00000000000000000000000001000000 #
b00000000000000000000000001000100 %
b0000000000000000000001000000 X
1\
b00000000000000000000000001000000 _
b00000000000000000000000001000100 `
#61
0\
#62
b00000000000000000000000001000100 #
b00000000000000000000000001001000 %
b0000000000000000000001000100 X
1\
b00000000000000000000000001000100 _
b00000000000000000000000001001000 `
#63
0\
#64
b00000000000000000000000001001000 #
b00000000000000000000000001001100 %
b0000000000000000000001001000 X
1\
b00000000000000000000000001001000 _
b00000000000000000000000001001100 `
#65
0\
#66
b00000000000000000000000001001100 #
b00000000000000000000000001010000 %
b0000000000000000000001001100 X
1\
b00000000000000000000000001001100 _
b00000000000000000000000001010000 `
#67
0\
#68
b00000000000000000000000001010000 #
b00000000000000000000000001010100 %
b0000000000000000000001010000 X
1\
b00000000000000000000000001010000 _
b00000000000000000000000001010100 `
#69
0\
#70
b00000000000000000000000001010100 #
b00000000000000000000000001011000 %
b0000000000000000000001010100 X
1\
b00000000000000000000000001010100 _
b00000000000000000000000001011000 `
#71
0\
#72
b00000000000000000000000001011000 #
b00000000000000000000000001011100 %
b0000000000000000000001011000 X
1\
b00000000000000000000000001011000 _
b00000000000000000000000001011100 `
#73
0\
#74
b00000000000000000000000001011100 #
b00000000000000000000000001100000 %
b0000000000000000000001011100 X
1\
b00000000000000000000000001011100 _
b00000000000000000000000001100000 `
#75
0\
#76
b00000000000000000000000001100000 #
b00000000000000000000000001100100 %
b0000000000000000000001100000 X
1\
b00000000000000000000000001100000 _
b00000000000000000000000001100100 `
#77
0\
#78
b00000000000000000000000001100100 #
b00000000000000000000000001101000 %
b0000000000000000000001100100 X
1\
b00000000000000000000000001100100 _
b00000000000000000000000001101000 `
#79
0\
#80
b00000000000000000000000001101000 #
b00000000000000000000000001101100 %
b0000000000000000000001101000 X
1\
b00000000000000000000000001101000 _
b00000000000000000000000001101100 `
#81
0\
#82
b00000000000000000000000001101100 #
b00000000000000000000000001110000 %
b0000000000000000000001101100 X
1\
b00000000000000000000000001101100 _
b00000000000000000000000001110000 `
#83
0\
#84
b00000000000000000000000001110000 #
b00000000000000000000000001110100 %
b0000000000000000000001110000 X
1\
b00000000000000000000000001110000 _
b00000000000000000000000001110100 `
#85
0\
#86
b00000000000000000000000001110100 #
b00000000000000000000000001111000 %
b0000000000000000000001110100 X
1\
b00000000000000000000000001110100 _
b00000000000000000000000001111000 `
#87
0\
#88
b00000000000000000000000001111000 #
b00000000000000000000000001111100 %
b0000000000000000000001111000 X
1\
b00000000000000000000000001111000 _
b00000000000000000000000001111100 `
#89
0\
#90
b00000000000000000000000001111100 #
b00000000000000000000000010000000 %
b0000000000000000000001111100 X
1\
b00000000000000000000000001111100 _
b00000000000000000000000010000000 `
#91
0\
#92
b00000000000000000000000010000000 #
b00000000000000000000000010000100 %
b0000000000000000000010000000 X
1\
b00000000000000000000000010000000 _
b00000000000000000000000010000100 `
#93
0\
#94
b00000000000000000000000010000100 #
b00000000000000000000000010001000 %
b0000000000000000000010000100 X
1\
b00000000000000000000000010000100 _
b00000000000000000000000010001000 `
#95
0\
#96
b00000000000000000000000010001000 #
b00000000000000000000000010001100 %
b0000000000000000000010001000 X
1\
b00000000000000000000000010001000 _
b00000000000000000000000010001100 `
#97
0\
#98
b00000000000000000000000010001100 #
b00000000000000000000000010010000 %
b0000000000000000000010001100 X
1\
b00000000000000000000000010001100 _
b00000000000000000000000010010000 `
#99
0\
#100
b00000000000000000000000010010000 #
b00000000000000000000000010010100 %
b0000000000000000000010010000 X
1\
b00000000000000000000000010010000 _
b00000000000000000000000010010100 `
#101
0\
#102
b00000000000000000000000010010100 #
b00000000000000000000000010011000 %
b0000000000000000000010010100 X
1\
b00000000000000000000000010010100 _
b00000000000000000000000010011000 `
#103
0\
#104
b00000000000000000000000010011000 #
b00000000000000000000000010011100 %
b0000000000000000000010011000 X
1\
b00000000000000000000000010011000 _
b00000000000000000000000010011100 `
#105
0\
#106
b00000000000000000000000010011100 #
b00000000000000000000000010100000 %
b0000000000000000000010011100 X
1\
b00000000000000000000000010011100 _
b00000000000000000000000010100000 `
#107
0\
#108
b00000000000000000000000010100000 #
b00000000000000000000000010100100 %
b0000000000000000000010100000 X
1\
b00000000000000000000000010100000 _
b00000000000000000000000010100100 `
#109
0\
#110
b00000000000000000000000010100100 #
b00000000000000000000000010101000 %
b0000000000000000000010100100 X
1\
b00000000000000000000000010100100 _
b00000000000000000000000010101000 `
#111
0\
#112
b00000000000000000000000010101000 #
b00000000000000000000000010101100 %
b0000000000000000000010101000 X
1\
b00000000000000000000000010101000 _
b00000000000000000000000010101100 `
#113
0\
#114
b00000000000000000000000010101100 #
b00000000000000000000000010110000 %
b0000000000000000000010101100 X
1\
b00000000000000000000000010101100 _
b00000000000000000000000010110000 `
#115
0\
#116
b00000000000000000000000010110000 #
b00000000000000000000000010110100 %
b0000000000000000000010110000 X
1\
b00000000000000000000000010110000 _
b00000000000000000000000010110100 `
#117
0\
#118
b00000000000000000000000010110100 #
b00000000000000000000000010111000 %
b0000000000000000000010110100 X
1\
b00000000000000000000000010110100 _
b00000000000000000000000010111000 `
#119
0\
#120
b00000000000000000000000010111000 #
b00000000000000000000000010111100 %
b0000000000000000000010111000 X
1\
b00000000000000000000000010111000 _
b00000000000000000000000010111100 `
#121
0\
#122
b00000000000000000000000010111100 #
b00000000000000000000000011000000 %
b0000000000000000000010111100 X
1\
b00000000000000000000000010111100 _
b00000000000000000000000011000000 `
#123
0\
#124
b00000000000000000000000011000000 #
b00000000000000000000000011000100 %
b0000000000000000000011000000 X
1\
b00000000000000000000000011000000 _
b00000000000000000000000011000100 `
#125
0\
#126
b00000000000000000000000011000100 #
b00000000000000000000000011001000 %
b0000000000000000000011000100 X
1\
b00000000000000000000000011000100 _
b00000000000000000000000011001000 `
#127
0\
#128
b00000000000000000000000011001000 #
b00000000000000000000000011001100 %
b0000000000000000000011001000 X
1\
b00000000000000000000000011001000 _
b00000000000000000000000011001100 `
#129
0\
#130
b00000000000000000000000011001100 #
b00000000000000000000000011010000 %
b0000000000000000000011001100 X
1\
b00000000000000000000000011001100 _
b00000000000000000000000011010000 `
#131
0\
#132
b00000000000000000000000011010000 #
b00000000000000000000000011010100 %
b0000000000000000000011010000 X
1\
b00000000000000000000000011010000 _
b00000000000000000000000011010100 `
#133
0\
#134
b00000000000000000000000011010100 #
b00000000000000000000000011011000 %
b0000000000000000000011010100 X
1\
b00000000000000000000000011010100 _
b00000000000000000000000011011000 `
#135
0\
#136
b00000000000000000000000011011000 #
b00000000000000000000000011011100 %
b0000000000000000000011011000 X
1\
b00000000000000000000000011011000 _
b00000000000000000000000011011100 `
#137
0\
#138
b00000000000000000000000011011100 #
b00000000000000000000000011100000 %
b0000000000000000000011011100 X
1\
b00000000000000000000000011011100 _
b00000000000000000000000011100000 `
#139
0\
#140
b00000000000000000000000011100000 #
b00000000000000000000000011100100 %
b0000000000000000000011100000 X
1\
b00000000000000000000000011100000 _
b00000000000000000000000011100100 `
#141
0\
#142
b00000000000000000000000011100100 #
b00000000000000000000000011101000 %
b0000000000000000000011100100 X
1\
b00000000000000000000000011100100 _
b00000000000000000000000011101000 `
#143
0\
#144
b00000000000000000000000011101000 #
b00000000000000000000000011101100 %
b0000000000000000000011101000 X
1\
b00000000000000000000000011101000 _
b00000000000000000000000011101100 `
#145
0\
#146
b00000000000000000000000011101100 #
b00000000000000000000000011110000 %
b0000000000000000000011101100 X
1\
b00000000000000000000000011101100 _
b00000000000000000000000011110000 `
#147
0\
#148
b00000000000000000000000011110000 #
b00000000000000000000000011110100 %
b0000000000000000000011110000 X
1\
b00000000000000000000000011110000 _
b00000000000000000000000011110100 `
#149
0\
#150
b00000000000000000000000011110100 #
b00000000000000000000000011111000 %
b0000000000000000000011110100 X
1\
b00000000000000000000000011110100 _
b00000000000000000000000011111000 `
#151
0\
#152
b00000000000000000000000011111000 #
b00000000000000000000000011111100 %
b0000000000000000000011111000 X
1\
b00000000000000000000000011111000 _
b00000000000000000000000011111100 `
#153
0\
#154
b00000000000000000000000011111100 #
b00000000000000000000000100000000 %
b0000000000000000000011111100 X
1\
b00000000000000000000000011111100 _
b00000000000000000000000100000000 `
#155
0\
#156
b00000000000000000000000100000000 #
b00000000000000000000000100000100 %
b0000000000000000000100000000 X
1\
b00000000000000000000000100000000 _
b00000000000000000000000100000100 `
#157
0\
#158
b00000000000000000000000100000100 #
b00000000000000000000000100001000 %
b0000000000000000000100000100 X
1\
b00000000000000000000000100000100 _
b00000000000000000000000100001000 `
#159
0\
#160
b00000000000000000000000100001000 #
b00000000000000000000000100001100 %
b0000000000000000000100001000 X
1\
b00000000000000000000000100001000 _
b00000000000000000000000100001100 `
#161
0\
#162
b00000000000000000000000100001100 #
b00000000000000000000000100010000 %
b0000000000000000000100001100 X
1\
b00000000000000000000000100001100 _
b00000000000000000000000100010000 `
#163
0\
#164
b00000000000000000000000100010000 #
b00000000000000000000000100010100 %
b0000000000000000000100010000 X
1\
b00000000000000000000000100010000 _
b00000000000000000000000100010100 `
#165
0\
#166
b00000000000000000000000100010100 #
b00000000000000000000000100011000 %
b0000000000000000000100010100 X
1\
b00000000000000000000000100010100 _
b00000000000000000000000100011000 `
#167
0\
#168
b00000000000000000000000100011000 #
b00000000000000000000000100011100 %
b0000000000000000000100011000 X
1\
b00000000000000000000000100011000 _
b00000000000000000000000100011100 `
#169
0\
#170
b00000000000000000000000100011100 #
b00000000000000000000000100100000 %
b0000000000000000000100011100 X
1\
b00000000000000000000000100011100 _
b00000000000000000000000100100000 `
#171
0\
#172
b00000000000000000000000100100000 #
b00000000000000000000000100100100 %
b0000000000000000000100100000 X
1\
b00000000000000000000000100100000 _
b00000000000000000000000100100100 `
#173
0\
#174
b00000000000000000000000100100100 #
b00000000000000000000000100101000 %
b0000000000000000000100100100 X
1\
b00000000000000000000000100100100 _
b00000000000000000000000100101000 `
#175
0\
#176
b00000000000000000000000100101000 #
b00000000000000000000000100101100 %
b0000000000000000000100101000 X
1\
b00000000000000000000000100101000 _
b00000000000000000000000100101100 `
#177
0\
#178
b00000000000000000000000100101100 #
b00000000000000000000000100110000 %
b0000000000000000000100101100 X
1\
b00000000000000000000000100101100 _
b00000000000000000000000100110000 `
#179
0\
#180
b00000000000000000000000100110000 #
b00000000000000000000000100110100 %
b0000000000000000000100110000 X
1\
b00000000000000000000000100110000 _
b00000000000000000000000100110100 `
#181
0\
#182
b00000000000000000000000100110100 #
b00000000000000000000000100111000 %
b0000000000000000000100110100 X
1\
b00000000000000000000000100110100 _
b00000000000000000000000100111000 `
#183
0\
#184
b00000000000000000000000100111000 #
b00000000000000000000000100111100 %
b0000000000000000000100111000 X
1\
b00000000000000000000000100111000 _
b00000000000000000000000100111100 `
#185
0\
#186
b00000000000000000000000100111100 #
b00000000000000000000000101000000 %
b0000000000000000000100111100 X
1\
b00000000000000000000000100111100 _
b00000000000000000000000101000000 `
#187
0\
#188
b00000000000000000000000101000000 #
b00000000000000000000000101000100 %
b0000000000000000000101000000 X
1\
b00000000000000000000000101000000 _
b00000000000000000000000101000100 `
#189
0\
#190
b00000000000000000000000101000100 #
b00000000000000000000000101001000 %
b0000000000000000000101000100 X
1\
b00000000000000000000000101000100 _
b00000000000000000000000101001000 `
#191
0\
#192
b00000000000000000000000101001000 #
b00000000000000000000000101001100 %
b0000000000000000000101001000 X
1\
b00000000000000000000000101001000 _
b00000000000000000000000101001100 `
#193
0\
#194
b00000000000000000000000101001100 #
b00000000000000000000000101010000 %
b0000000000000000000101001100 X
1\
b00000000000000000000000101001100 _
b00000000000000000000000101010000 `
#195
0\
#196
b00000000000000000000000101010000 #
b00000000000000000000000101010100 %
b0000000000000000000101010000 X
1\
b00000000000000000000000101010000 _
b00000000000000000000000101010100 `
#197
0\
#198
b00000000000000000000000101010100 #
b00000000000000000000000101011000 %
b0000000000000000000101010100 X
1\
b00000000000000000000000101010100 _
b00000000000000000000000101011000 `
#199
0\
#200
b00000000000000000000000101011000 #
b00000000000000000000000101011100 %
b0000000000000000000101011000 X
1\
b00000000000000000000000101011000 _
b00000000000000000000000101011100 `
#201
0\
#202
b00000000000000000000000101011100 #
b00000000000000000000000101100000 %
b0000000000000000000101011100 X
1\
b00000000000000000000000101011100 _
b00000000000000000000000101100000 `
#203
0\
#204
b00000000000000000000000101100000 #
b00000000000000000000000101100100 %
b0000000000000000000101100000 X
1\
b00000000000000000000000101100000 _
b00000000000000000000000101100100 `
#205
0\
#206
b00000000000000000000000101100100 #
b00000000000000000000000101101000 %
b0000000000000000000101100100 X
1\
b00000000000000000000000101100100 _
b00000000000000000000000101101000 `
#207
0\
#208
b00000000000000000000000101101000 #
b00000000000000000000000101101100 %
b0000000000000000000101101000 X
1\
b00000000000000000000000101101000 _
b00000000000000000000000101101100 `
#209
0\
#210
b00000000000000000000000101101100 #
b00000000000000000000000101110000 %
b0000000000000000000101101100 X
1\
b00000000000000000000000101101100 _
b00000000000000000000000101110000 `
#211
0\
#212
b00000000000000000000000101110000 #
b00000000000000000000000101110100 %
b0000000000000000000101110000 X
1\
b00000000000000000000000101110000 _
b00000000000000000000000101110100 `
#213
0\
#214
b00000000000000000000000101110100 #
b00000000000000000000000101111000 %
b0000000000000000000101110100 X
1\
b00000000000000000000000101110100 _
b00000000000000000000000101111000 `
#215
0\
